EESchema Schematic File Version 4
LIBS:BatteryTester-cache
EELAYER 30 0
EELAYER END
$Descr USLetter 11000 8500
encoding utf-8
Sheet 1 1
Title "Battery Tester"
Date "2020-06-07"
Rev ""
Comp "Scott Alfter"
Comment1 ""
Comment2 ""
Comment3 ""
Comment4 ""
$EndDescr
$Comp
L BatteryTester-rescue:Arduino_Nano_v3.x-MCU_Module A1
U 1 1 5ED95792
P 4300 3750
F 0 "A1" H 4750 4600 50  0000 C CNN
F 1 "Arduino_Nano_v3.x" H 5050 2900 50  0000 C CNN
F 2 "Module:Arduino_Nano" H 4450 2800 50  0001 L CNN
F 3 "http://www.mouser.com/pdfdocs/Gravitech_Arduino_Nano3_0.pdf" H 4300 2750 50  0001 C CNN
F 4 "1050-1001-ND" H 4300 3750 50  0001 C CNN "DK_PN"
F 5 "Arduino" H 4300 3750 50  0001 C CNN "Manufacturer"
F 6 "A000005" H 4300 3750 50  0001 C CNN "Mfr PN"
F 7 "Amazon" H 4300 3750 50  0001 C CNN "Other_Vendor"
F 8 "B07GPPK4DK" H 4300 3750 50  0001 C CNN "Other_Vendor_PN"
	1    4300 3750
	1    0    0    -1  
$EndComp
$Comp
L displays:SPI_OLED U1
U 1 1 5ED98623
P 2350 3450
F 0 "U1" H 2728 3404 50  0000 L CNN
F 1 "SPI_OLED" H 2728 3313 50  0000 L CNN
F 2 "displays:OLED-0.96-SSD1306" H 2350 3450 50  0001 C CNN
F 3 "" H 2350 3450 50  0001 C CNN
F 4 "HiLetgo" H 2350 3450 50  0001 C CNN "Manufacturer"
F 5 "3-01-1234-B" H 2350 3450 50  0001 C CNN "Mfr PN"
F 6 "7-pin SPI/I2C convertible" H 2350 3450 50  0001 C CNN "Notes"
F 7 "Amazon" H 2350 3450 50  0001 C CNN "Other_Vendor"
F 8 "B01MQPQF24" H 2350 3450 50  0001 C CNN "Other_Vendor_PN"
	1    2350 3450
	1    0    0    -1  
$EndComp
Text GLabel 2250 3150 1    50   Input ~ 0
SCK
Text GLabel 2350 3150 1    50   Input ~ 0
MOSI
Wire Wire Line
	2250 3150 2250 3250
Wire Wire Line
	2350 3150 2350 3250
Wire Wire Line
	2650 3250 2650 3150
Text GLabel 2650 3150 1    50   Input ~ 0
CS
$Comp
L power:GND #PWR01
U 1 1 5ED99ACB
P 1850 3350
F 0 "#PWR01" H 1850 3100 50  0001 C CNN
F 1 "GND" H 1855 3177 50  0000 C CNN
F 2 "" H 1850 3350 50  0001 C CNN
F 3 "" H 1850 3350 50  0001 C CNN
	1    1850 3350
	1    0    0    -1  
$EndComp
$Comp
L power:GND #PWR04
U 1 1 5ED99BC1
P 4300 4850
F 0 "#PWR04" H 4300 4600 50  0001 C CNN
F 1 "GND" H 4305 4677 50  0000 C CNN
F 2 "" H 4300 4850 50  0001 C CNN
F 3 "" H 4300 4850 50  0001 C CNN
	1    4300 4850
	1    0    0    -1  
$EndComp
Wire Wire Line
	1850 3350 1850 3200
Wire Wire Line
	1850 3200 2050 3200
Wire Wire Line
	2050 3200 2050 3250
Wire Wire Line
	4300 4850 4300 4800
Wire Wire Line
	4300 4800 4400 4800
Wire Wire Line
	4400 4800 4400 4750
Connection ~ 4300 4800
Wire Wire Line
	4300 4800 4300 4750
$Comp
L power:VCC #PWR05
U 1 1 5ED9A331
P 4500 2650
F 0 "#PWR05" H 4500 2500 50  0001 C CNN
F 1 "VCC" H 4517 2823 50  0000 C CNN
F 2 "" H 4500 2650 50  0001 C CNN
F 3 "" H 4500 2650 50  0001 C CNN
	1    4500 2650
	1    0    0    -1  
$EndComp
$Comp
L power:VCC #PWR02
U 1 1 5ED9A9DD
P 2150 3150
F 0 "#PWR02" H 2150 3000 50  0001 C CNN
F 1 "VCC" H 2167 3323 50  0000 C CNN
F 2 "" H 2150 3150 50  0001 C CNN
F 3 "" H 2150 3150 50  0001 C CNN
	1    2150 3150
	1    0    0    -1  
$EndComp
Wire Wire Line
	4500 2650 4500 2750
Wire Wire Line
	2150 3150 2150 3250
Text GLabel 3700 4450 0    50   Output ~ 0
SCK
Text GLabel 3700 4250 0    50   Output ~ 0
MOSI
Text GLabel 3700 4150 0    50   Output ~ 0
CS
Wire Wire Line
	3700 4150 3800 4150
Wire Wire Line
	3800 4250 3700 4250
Wire Wire Line
	3700 4450 3800 4450
Text GLabel 3700 4050 0    50   Output ~ 0
DC
Text GLabel 3700 3950 0    50   Output ~ 0
RES
Wire Wire Line
	3700 3950 3800 3950
Wire Wire Line
	3700 4050 3800 4050
Text GLabel 2450 3150 1    50   Input ~ 0
RES
Text GLabel 2550 3150 1    50   Input ~ 0
DC
Wire Wire Line
	2550 3150 2550 3250
Wire Wire Line
	2450 3250 2450 3150
$Comp
L Device:Buzzer BZ1
U 1 1 5ED9C0DA
P 2300 4400
F 0 "BZ1" H 2305 4690 50  0000 C CNN
F 1 "Buzzer" H 2305 4599 50  0000 C CNN
F 2 "buzzers:Buzzer_12x9.5RM6.5" V 2275 4500 50  0001 C CNN
F 3 "~" V 2275 4500 50  0001 C CNN
F 4 "" H 2300 4400 50  0001 C CNN "DK PN"
F 5 "Soberton" H 2300 4400 50  0001 C CNN "Manufacturer"
F 6 "WT-1205" H 2300 4400 50  0001 C CNN "Mfr PN"
F 7 "433-1028-ND" H 2300 4400 50  0001 C CNN "DK_PN"
F 8 "C252915" H 2300 4400 50  0001 C CNN "LCSC_PN"
	1    2300 4400
	-1   0    0    -1  
$EndComp
$Comp
L power:GND #PWR03
U 1 1 5ED9CEB3
P 2450 4550
F 0 "#PWR03" H 2450 4300 50  0001 C CNN
F 1 "GND" H 2455 4377 50  0000 C CNN
F 2 "" H 2450 4550 50  0001 C CNN
F 3 "" H 2450 4550 50  0001 C CNN
	1    2450 4550
	1    0    0    -1  
$EndComp
Text GLabel 2450 4300 2    50   Input ~ 0
BZR
Wire Wire Line
	2450 4300 2400 4300
Wire Wire Line
	2400 4500 2450 4500
Wire Wire Line
	2450 4500 2450 4550
Text GLabel 3700 3850 0    50   Output ~ 0
BZR
Wire Wire Line
	3700 3850 3800 3850
$Comp
L Device:R_US R1
U 1 1 5EDA2CAE
P 6650 2350
F 0 "R1" H 6718 2396 50  0000 L CNN
F 1 "4.7Ω 5W" H 6718 2305 50  0000 L CNN
F 2 "Resistor_THT:R_Axial_DIN0922_L20.0mm_D9.0mm_P25.40mm_Horizontal" V 6690 2340 50  0001 C CNN
F 3 "https://www.vishay.com/docs/28730/acac-at.pdf" H 6650 2350 50  0001 C CNN
F 4 "" H 6650 2350 50  0001 C CNN "DK PN"
F 5 "Vishay Dale" H 6650 2350 50  0001 C CNN "Manufacturer"
F 6 "AC05000004708JAC00" H 6650 2350 50  0001 C CNN "Mfr PN"
F 7 "PPC5W4.7CT-ND" H 6650 2350 50  0001 C CNN "DK_PN"
	1    6650 2350
	1    0    0    -1  
$EndComp
Wire Wire Line
	6650 2500 6650 2650
$Comp
L Connector:Screw_Terminal_01x02 J1
U 1 1 5EDA4F96
P 6100 2600
F 0 "J1" H 6018 2725 50  0000 C CNN
F 1 "Screw_Terminal_01x02" H 6018 2726 50  0001 C CNN
F 2 "TerminalBlock_Phoenix:TerminalBlock_Phoenix_MKDS-1,5-2-5.08_1x02_P5.08mm_Horizontal" H 6100 2600 50  0001 C CNN
F 3 "https://media.digikey.com/pdf/Data%20Sheets/Phoenix%20Contact%20PDFs/1715721.pdf" H 6100 2600 50  0001 C CNN
F 4 "" H 6100 2600 50  0001 C CNN "DK PN"
F 5 "Phoenix Contact" H 6100 2600 50  0001 C CNN "Manufacturer"
F 6 "1715721" H 6100 2600 50  0001 C CNN "Mfr PN"
F 7 "277-1263-ND" H 6100 2600 50  0001 C CNN "DK_PN"
F 8 "C480516" H 6100 2600 50  0001 C CNN "LCSC_PN"
	1    6100 2600
	-1   0    0    -1  
$EndComp
Wire Wire Line
	6650 3150 6650 3100
Wire Wire Line
	6650 2150 6650 2200
$Comp
L Device:R_US R3
U 1 1 5EDA6D54
P 7150 1800
F 0 "R3" H 7218 1846 50  0000 L CNN
F 1 "10k" H 7218 1755 50  0000 L CNN
F 2 "Resistor_SMD:R_0603_1608Metric" V 7190 1790 50  0001 C CNN
F 3 "~" H 7150 1800 50  0001 C CNN
F 4 "311-10.0KHRCT-ND" H 7150 1800 50  0001 C CNN "DK_PN"
F 5 "Yageo" H 7150 1800 50  0001 C CNN "Manufacturer"
F 6 "RC0603FR-0710KL" H 7150 1800 50  0001 C CNN "Mfr PN"
F 7 "0603" H 7150 1800 50  0001 C CNN "Package"
F 8 "C328335" H 7150 1800 50  0001 C CNN "LCSC_PN"
	1    7150 1800
	1    0    0    -1  
$EndComp
$Comp
L Device:R_US R4
U 1 1 5EDA7393
P 7150 2200
F 0 "R4" H 7218 2246 50  0000 L CNN
F 1 "10k" H 7218 2155 50  0000 L CNN
F 2 "Resistor_SMD:R_0603_1608Metric" V 7190 2190 50  0001 C CNN
F 3 "~" H 7150 2200 50  0001 C CNN
F 4 "311-10.0KHRCT-ND" H 7150 2200 50  0001 C CNN "DK_PN"
F 5 "Yageo" H 7150 2200 50  0001 C CNN "Manufacturer"
F 6 "RC0603FR-0710KL" H 7150 2200 50  0001 C CNN "Mfr PN"
F 7 "0603" H 7150 2200 50  0001 C CNN "Package"
F 8 "C328335" H 7150 2200 50  0001 C CNN "LCSC_PN"
	1    7150 2200
	1    0    0    -1  
$EndComp
Connection ~ 6650 2150
$Comp
L power:GND #PWR06
U 1 1 5EDAA201
P 7150 2400
F 0 "#PWR06" H 7150 2150 50  0001 C CNN
F 1 "GND" H 7155 2227 50  0000 C CNN
F 2 "" H 7150 2400 50  0001 C CNN
F 3 "" H 7150 2400 50  0001 C CNN
	1    7150 2400
	1    0    0    -1  
$EndComp
Wire Wire Line
	7150 2350 7150 2400
Wire Wire Line
	7150 1950 7150 2000
Wire Wire Line
	6650 1600 7150 1600
Wire Wire Line
	7150 1600 7150 1650
Wire Wire Line
	6650 1600 6650 2150
$Comp
L Device:R_US R5
U 1 1 5EDAE448
P 7150 2850
F 0 "R5" H 7218 2896 50  0000 L CNN
F 1 "10k" H 7218 2805 50  0000 L CNN
F 2 "Resistor_SMD:R_0603_1608Metric" V 7190 2840 50  0001 C CNN
F 3 "~" H 7150 2850 50  0001 C CNN
F 4 "311-10.0KHRCT-ND" H 7150 2850 50  0001 C CNN "DK_PN"
F 5 "Yageo" H 7150 2850 50  0001 C CNN "Manufacturer"
F 6 "RC0603FR-0710KL" H 7150 2850 50  0001 C CNN "Mfr PN"
F 7 "0603" H 7150 2850 50  0001 C CNN "Package"
F 8 "C328335" H 7150 2850 50  0001 C CNN "LCSC_PN"
	1    7150 2850
	1    0    0    -1  
$EndComp
$Comp
L Device:R_US R6
U 1 1 5EDAE452
P 7150 3250
F 0 "R6" H 7218 3296 50  0000 L CNN
F 1 "10k" H 7218 3205 50  0000 L CNN
F 2 "Resistor_SMD:R_0603_1608Metric" V 7190 3240 50  0001 C CNN
F 3 "~" H 7150 3250 50  0001 C CNN
F 4 "311-10.0KHRCT-ND" H 7150 3250 50  0001 C CNN "DK_PN"
F 5 "Yageo" H 7150 3250 50  0001 C CNN "Manufacturer"
F 6 "RC0603FR-0710KL" H 7150 3250 50  0001 C CNN "Mfr PN"
F 7 "0603" H 7150 3250 50  0001 C CNN "Package"
F 8 "C328335" H 7150 3250 50  0001 C CNN "LCSC_PN"
	1    7150 3250
	1    0    0    -1  
$EndComp
$Comp
L power:GND #PWR07
U 1 1 5EDAE45C
P 7150 3450
F 0 "#PWR07" H 7150 3200 50  0001 C CNN
F 1 "GND" H 7155 3277 50  0000 C CNN
F 2 "" H 7150 3450 50  0001 C CNN
F 3 "" H 7150 3450 50  0001 C CNN
	1    7150 3450
	1    0    0    -1  
$EndComp
Wire Wire Line
	7150 3400 7150 3450
Wire Wire Line
	7150 3000 7150 3050
Wire Wire Line
	7150 2650 7150 2700
Wire Wire Line
	7150 2650 6650 2650
Connection ~ 6650 2650
Wire Wire Line
	6650 2650 6650 2700
Wire Wire Line
	7150 2000 7200 2000
Connection ~ 7150 2000
Wire Wire Line
	7150 2000 7150 2050
Wire Wire Line
	7150 3050 7200 3050
Connection ~ 7150 3050
Wire Wire Line
	7150 3050 7150 3100
Wire Wire Line
	6350 2900 6250 2900
Text GLabel 7200 2000 2    50   Output ~ 0
B1_V1
Text GLabel 7200 3050 2    50   Output ~ 0
B1_V2
Text GLabel 6250 2900 0    50   Input ~ 0
B1_SW
Text GLabel 3700 3650 0    50   Output ~ 0
B1_SW
Wire Wire Line
	3700 3350 3800 3350
Text GLabel 3700 3550 0    50   Output ~ 0
B2_SW
Text GLabel 3700 3450 0    50   Output ~ 0
B3_SW
Text GLabel 3700 3350 0    50   Output ~ 0
B4_SW
Text GLabel 4900 3850 2    50   Input ~ 0
B1_V1
Text GLabel 4900 3750 2    50   Input ~ 0
B1_V2
Wire Wire Line
	3700 3450 3800 3450
Wire Wire Line
	3800 3550 3700 3550
Wire Wire Line
	3700 3650 3800 3650
Wire Wire Line
	4900 3750 4800 3750
Wire Wire Line
	4800 3850 4900 3850
Wire Wire Line
	6300 2700 6300 3150
Wire Wire Line
	6300 3150 6650 3150
Wire Wire Line
	6300 2600 6300 2150
Wire Wire Line
	6300 2150 6650 2150
Wire Wire Line
	8450 2500 8450 2650
$Comp
L Connector:Screw_Terminal_01x02 J3
U 1 1 5EDC2723
P 7900 2600
F 0 "J3" H 7818 2725 50  0000 C CNN
F 1 "Screw_Terminal_01x02" H 7818 2726 50  0001 C CNN
F 2 "TerminalBlock_Phoenix:TerminalBlock_Phoenix_MKDS-1,5-2-5.08_1x02_P5.08mm_Horizontal" H 7900 2600 50  0001 C CNN
F 3 "https://media.digikey.com/pdf/Data%20Sheets/Phoenix%20Contact%20PDFs/1715721.pdf" H 7900 2600 50  0001 C CNN
F 4 "" H 7900 2600 50  0001 C CNN "DK PN"
F 5 "Phoenix Contact" H 7900 2600 50  0001 C CNN "Manufacturer"
F 6 "1715721" H 7900 2600 50  0001 C CNN "Mfr PN"
F 7 "277-1263-ND" H 7900 2600 50  0001 C CNN "DK_PN"
F 8 "C480516" H 7900 2600 50  0001 C CNN "LCSC_PN"
	1    7900 2600
	-1   0    0    -1  
$EndComp
Wire Wire Line
	8450 3150 8450 3100
Wire Wire Line
	8450 2150 8450 2200
$Comp
L Device:R_US R13
U 1 1 5EDC272F
P 8950 1800
F 0 "R13" H 9018 1846 50  0000 L CNN
F 1 "10k" H 9018 1755 50  0000 L CNN
F 2 "Resistor_SMD:R_0603_1608Metric" V 8990 1790 50  0001 C CNN
F 3 "~" H 8950 1800 50  0001 C CNN
F 4 "311-10.0KHRCT-ND" H 8950 1800 50  0001 C CNN "DK_PN"
F 5 "Yageo" H 8950 1800 50  0001 C CNN "Manufacturer"
F 6 "RC0603FR-0710KL" H 8950 1800 50  0001 C CNN "Mfr PN"
F 7 "0603" H 8950 1800 50  0001 C CNN "Package"
F 8 "C328335" H 8950 1800 50  0001 C CNN "LCSC_PN"
	1    8950 1800
	1    0    0    -1  
$EndComp
$Comp
L Device:R_US R14
U 1 1 5EDC2739
P 8950 2200
F 0 "R14" H 9018 2246 50  0000 L CNN
F 1 "10k" H 9018 2155 50  0000 L CNN
F 2 "Resistor_SMD:R_0603_1608Metric" V 8990 2190 50  0001 C CNN
F 3 "~" H 8950 2200 50  0001 C CNN
F 4 "311-10.0KHRCT-ND" H 8950 2200 50  0001 C CNN "DK_PN"
F 5 "Yageo" H 8950 2200 50  0001 C CNN "Manufacturer"
F 6 "RC0603FR-0710KL" H 8950 2200 50  0001 C CNN "Mfr PN"
F 7 "0603" H 8950 2200 50  0001 C CNN "Package"
F 8 "C328335" H 8950 2200 50  0001 C CNN "LCSC_PN"
	1    8950 2200
	1    0    0    -1  
$EndComp
Connection ~ 8450 2150
$Comp
L power:GND #PWR010
U 1 1 5EDC2744
P 8950 2400
F 0 "#PWR010" H 8950 2150 50  0001 C CNN
F 1 "GND" H 8955 2227 50  0000 C CNN
F 2 "" H 8950 2400 50  0001 C CNN
F 3 "" H 8950 2400 50  0001 C CNN
	1    8950 2400
	1    0    0    -1  
$EndComp
Wire Wire Line
	8950 2350 8950 2400
Wire Wire Line
	8950 1950 8950 2000
Wire Wire Line
	8450 1600 8950 1600
Wire Wire Line
	8950 1600 8950 1650
Wire Wire Line
	8450 1600 8450 2150
$Comp
L Device:R_US R15
U 1 1 5EDC2753
P 8950 2850
F 0 "R15" H 9018 2896 50  0000 L CNN
F 1 "10k" H 9018 2805 50  0000 L CNN
F 2 "Resistor_SMD:R_0603_1608Metric" V 8990 2840 50  0001 C CNN
F 3 "~" H 8950 2850 50  0001 C CNN
F 4 "311-10.0KHRCT-ND" H 8950 2850 50  0001 C CNN "DK_PN"
F 5 "Yageo" H 8950 2850 50  0001 C CNN "Manufacturer"
F 6 "RC0603FR-0710KL" H 8950 2850 50  0001 C CNN "Mfr PN"
F 7 "0603" H 8950 2850 50  0001 C CNN "Package"
F 8 "C328335" H 8950 2850 50  0001 C CNN "LCSC_PN"
	1    8950 2850
	1    0    0    -1  
$EndComp
$Comp
L Device:R_US R16
U 1 1 5EDC275D
P 8950 3250
F 0 "R16" H 9018 3296 50  0000 L CNN
F 1 "10k" H 9018 3205 50  0000 L CNN
F 2 "Resistor_SMD:R_0603_1608Metric" V 8990 3240 50  0001 C CNN
F 3 "~" H 8950 3250 50  0001 C CNN
F 4 "311-10.0KHRCT-ND" H 8950 3250 50  0001 C CNN "DK_PN"
F 5 "Yageo" H 8950 3250 50  0001 C CNN "Manufacturer"
F 6 "RC0603FR-0710KL" H 8950 3250 50  0001 C CNN "Mfr PN"
F 7 "0603" H 8950 3250 50  0001 C CNN "Package"
F 8 "C328335" H 8950 3250 50  0001 C CNN "LCSC_PN"
	1    8950 3250
	1    0    0    -1  
$EndComp
$Comp
L power:GND #PWR011
U 1 1 5EDC2767
P 8950 3450
F 0 "#PWR011" H 8950 3200 50  0001 C CNN
F 1 "GND" H 8955 3277 50  0000 C CNN
F 2 "" H 8950 3450 50  0001 C CNN
F 3 "" H 8950 3450 50  0001 C CNN
	1    8950 3450
	1    0    0    -1  
$EndComp
Wire Wire Line
	8950 3400 8950 3450
Wire Wire Line
	8950 3000 8950 3050
Wire Wire Line
	8950 2650 8950 2700
Wire Wire Line
	8950 2650 8450 2650
Connection ~ 8450 2650
Wire Wire Line
	8450 2650 8450 2700
Wire Wire Line
	8950 2000 9000 2000
Connection ~ 8950 2000
Wire Wire Line
	8950 2000 8950 2050
Wire Wire Line
	8950 3050 9000 3050
Connection ~ 8950 3050
Wire Wire Line
	8950 3050 8950 3100
Wire Wire Line
	8150 2900 8050 2900
Text GLabel 9000 2000 2    50   Output ~ 0
B2_V1
Text GLabel 9000 3050 2    50   Output ~ 0
B2_V2
Text GLabel 8050 2900 0    50   Input ~ 0
B2_SW
Wire Wire Line
	8100 2700 8100 3150
Wire Wire Line
	8100 3150 8450 3150
Wire Wire Line
	8100 2600 8100 2150
Wire Wire Line
	8100 2150 8450 2150
Wire Wire Line
	6650 4700 6650 4850
$Comp
L Connector:Screw_Terminal_01x02 J2
U 1 1 5EDCB7C7
P 6100 4800
F 0 "J2" H 6018 4925 50  0000 C CNN
F 1 "Screw_Terminal_01x02" H 6018 4926 50  0001 C CNN
F 2 "TerminalBlock_Phoenix:TerminalBlock_Phoenix_MKDS-1,5-2-5.08_1x02_P5.08mm_Horizontal" H 6100 4800 50  0001 C CNN
F 3 "https://media.digikey.com/pdf/Data%20Sheets/Phoenix%20Contact%20PDFs/1715721.pdf" H 6100 4800 50  0001 C CNN
F 4 "" H 6100 4800 50  0001 C CNN "DK PN"
F 5 "Phoenix Contact" H 6100 4800 50  0001 C CNN "Manufacturer"
F 6 "1715721" H 6100 4800 50  0001 C CNN "Mfr PN"
F 7 "277-1263-ND" H 6100 4800 50  0001 C CNN "DK_PN"
F 8 "C480516" H 6100 4800 50  0001 C CNN "LCSC_PN"
	1    6100 4800
	-1   0    0    -1  
$EndComp
Wire Wire Line
	6650 5350 6650 5300
Wire Wire Line
	6650 4350 6650 4400
$Comp
L Device:R_US R7
U 1 1 5EDCB7D3
P 7150 4000
F 0 "R7" H 7218 4046 50  0000 L CNN
F 1 "10k" H 7218 3955 50  0000 L CNN
F 2 "Resistor_SMD:R_0603_1608Metric" V 7190 3990 50  0001 C CNN
F 3 "~" H 7150 4000 50  0001 C CNN
F 4 "311-10.0KHRCT-ND" H 7150 4000 50  0001 C CNN "DK_PN"
F 5 "Yageo" H 7150 4000 50  0001 C CNN "Manufacturer"
F 6 "RC0603FR-0710KL" H 7150 4000 50  0001 C CNN "Mfr PN"
F 7 "0603" H 7150 4000 50  0001 C CNN "Package"
F 8 "C328335" H 7150 4000 50  0001 C CNN "LCSC_PN"
	1    7150 4000
	1    0    0    -1  
$EndComp
$Comp
L Device:R_US R8
U 1 1 5EDCB7DD
P 7150 4400
F 0 "R8" H 7218 4446 50  0000 L CNN
F 1 "10k" H 7218 4355 50  0000 L CNN
F 2 "Resistor_SMD:R_0603_1608Metric" V 7190 4390 50  0001 C CNN
F 3 "~" H 7150 4400 50  0001 C CNN
F 4 "311-10.0KHRCT-ND" H 7150 4400 50  0001 C CNN "DK_PN"
F 5 "Yageo" H 7150 4400 50  0001 C CNN "Manufacturer"
F 6 "RC0603FR-0710KL" H 7150 4400 50  0001 C CNN "Mfr PN"
F 7 "0603" H 7150 4400 50  0001 C CNN "Package"
F 8 "C328335" H 7150 4400 50  0001 C CNN "LCSC_PN"
	1    7150 4400
	1    0    0    -1  
$EndComp
Connection ~ 6650 4350
$Comp
L power:GND #PWR08
U 1 1 5EDCB7E8
P 7150 4600
F 0 "#PWR08" H 7150 4350 50  0001 C CNN
F 1 "GND" H 7155 4427 50  0000 C CNN
F 2 "" H 7150 4600 50  0001 C CNN
F 3 "" H 7150 4600 50  0001 C CNN
	1    7150 4600
	1    0    0    -1  
$EndComp
Wire Wire Line
	7150 4550 7150 4600
Wire Wire Line
	7150 4150 7150 4200
Wire Wire Line
	6650 3800 7150 3800
Wire Wire Line
	7150 3800 7150 3850
Wire Wire Line
	6650 3800 6650 4350
$Comp
L Device:R_US R9
U 1 1 5EDCB7F7
P 7150 5050
F 0 "R9" H 7218 5096 50  0000 L CNN
F 1 "10k" H 7218 5005 50  0000 L CNN
F 2 "Resistor_SMD:R_0603_1608Metric" V 7190 5040 50  0001 C CNN
F 3 "~" H 7150 5050 50  0001 C CNN
F 4 "311-10.0KHRCT-ND" H 7150 5050 50  0001 C CNN "DK_PN"
F 5 "Yageo" H 7150 5050 50  0001 C CNN "Manufacturer"
F 6 "RC0603FR-0710KL" H 7150 5050 50  0001 C CNN "Mfr PN"
F 7 "0603" H 7150 5050 50  0001 C CNN "Package"
F 8 "C328335" H 7150 5050 50  0001 C CNN "LCSC_PN"
	1    7150 5050
	1    0    0    -1  
$EndComp
$Comp
L Device:R_US R10
U 1 1 5EDCB801
P 7150 5450
F 0 "R10" H 7218 5496 50  0000 L CNN
F 1 "10k" H 7218 5405 50  0000 L CNN
F 2 "Resistor_SMD:R_0603_1608Metric" V 7190 5440 50  0001 C CNN
F 3 "~" H 7150 5450 50  0001 C CNN
F 4 "311-10.0KHRCT-ND" H 7150 5450 50  0001 C CNN "DK_PN"
F 5 "Yageo" H 7150 5450 50  0001 C CNN "Manufacturer"
F 6 "RC0603FR-0710KL" H 7150 5450 50  0001 C CNN "Mfr PN"
F 7 "0603" H 7150 5450 50  0001 C CNN "Package"
F 8 "C328335" H 7150 5450 50  0001 C CNN "LCSC_PN"
	1    7150 5450
	1    0    0    -1  
$EndComp
$Comp
L power:GND #PWR09
U 1 1 5EDCB80B
P 7150 5650
F 0 "#PWR09" H 7150 5400 50  0001 C CNN
F 1 "GND" H 7155 5477 50  0000 C CNN
F 2 "" H 7150 5650 50  0001 C CNN
F 3 "" H 7150 5650 50  0001 C CNN
	1    7150 5650
	1    0    0    -1  
$EndComp
Wire Wire Line
	7150 5600 7150 5650
Wire Wire Line
	7150 5200 7150 5250
Wire Wire Line
	7150 4850 7150 4900
Wire Wire Line
	7150 4850 6650 4850
Connection ~ 6650 4850
Wire Wire Line
	6650 4850 6650 4900
Wire Wire Line
	7150 4200 7200 4200
Connection ~ 7150 4200
Wire Wire Line
	7150 4200 7150 4250
Wire Wire Line
	7150 5250 7200 5250
Connection ~ 7150 5250
Wire Wire Line
	7150 5250 7150 5300
Wire Wire Line
	6350 5100 6250 5100
Text GLabel 7200 4200 2    50   Output ~ 0
B3_V1
Text GLabel 7200 5250 2    50   Output ~ 0
B3_V2
Text GLabel 6250 5100 0    50   Input ~ 0
B3_SW
Wire Wire Line
	6300 4900 6300 5350
Wire Wire Line
	6300 5350 6650 5350
Wire Wire Line
	6300 4800 6300 4350
Wire Wire Line
	6300 4350 6650 4350
Wire Wire Line
	8450 4700 8450 4850
$Comp
L Connector:Screw_Terminal_01x02 J4
U 1 1 5EDCB83E
P 7900 4800
F 0 "J4" H 7818 4925 50  0000 C CNN
F 1 "Screw_Terminal_01x02" H 7818 4926 50  0001 C CNN
F 2 "TerminalBlock_Phoenix:TerminalBlock_Phoenix_MKDS-1,5-2-5.08_1x02_P5.08mm_Horizontal" H 7900 4800 50  0001 C CNN
F 3 "https://media.digikey.com/pdf/Data%20Sheets/Phoenix%20Contact%20PDFs/1715721.pdf" H 7900 4800 50  0001 C CNN
F 4 "" H 7900 4800 50  0001 C CNN "DK PN"
F 5 "Phoenix Contact" H 7900 4800 50  0001 C CNN "Manufacturer"
F 6 "1715721" H 7900 4800 50  0001 C CNN "Mfr PN"
F 7 "277-1263-ND" H 7900 4800 50  0001 C CNN "DK_PN"
F 8 "C480516" H 7900 4800 50  0001 C CNN "LCSC_PN"
	1    7900 4800
	-1   0    0    -1  
$EndComp
Wire Wire Line
	8450 5350 8450 5300
Wire Wire Line
	8450 4350 8450 4400
$Comp
L Device:R_US R17
U 1 1 5EDCB84A
P 8950 4000
F 0 "R17" H 9018 4046 50  0000 L CNN
F 1 "10k" H 9018 3955 50  0000 L CNN
F 2 "Resistor_SMD:R_0603_1608Metric" V 8990 3990 50  0001 C CNN
F 3 "~" H 8950 4000 50  0001 C CNN
F 4 "311-10.0KHRCT-ND" H 8950 4000 50  0001 C CNN "DK_PN"
F 5 "Yageo" H 8950 4000 50  0001 C CNN "Manufacturer"
F 6 "RC0603FR-0710KL" H 8950 4000 50  0001 C CNN "Mfr PN"
F 7 "0603" H 8950 4000 50  0001 C CNN "Package"
F 8 "C328335" H 8950 4000 50  0001 C CNN "LCSC_PN"
	1    8950 4000
	1    0    0    -1  
$EndComp
$Comp
L Device:R_US R18
U 1 1 5EDCB854
P 8950 4400
F 0 "R18" H 9018 4446 50  0000 L CNN
F 1 "10k" H 9018 4355 50  0000 L CNN
F 2 "Resistor_SMD:R_0603_1608Metric" V 8990 4390 50  0001 C CNN
F 3 "~" H 8950 4400 50  0001 C CNN
F 4 "311-10.0KHRCT-ND" H 8950 4400 50  0001 C CNN "DK_PN"
F 5 "Yageo" H 8950 4400 50  0001 C CNN "Manufacturer"
F 6 "RC0603FR-0710KL" H 8950 4400 50  0001 C CNN "Mfr PN"
F 7 "0603" H 8950 4400 50  0001 C CNN "Package"
F 8 "C328335" H 8950 4400 50  0001 C CNN "LCSC_PN"
	1    8950 4400
	1    0    0    -1  
$EndComp
Connection ~ 8450 4350
$Comp
L power:GND #PWR012
U 1 1 5EDCB85F
P 8950 4600
F 0 "#PWR012" H 8950 4350 50  0001 C CNN
F 1 "GND" H 8955 4427 50  0000 C CNN
F 2 "" H 8950 4600 50  0001 C CNN
F 3 "" H 8950 4600 50  0001 C CNN
	1    8950 4600
	1    0    0    -1  
$EndComp
Wire Wire Line
	8950 4550 8950 4600
Wire Wire Line
	8950 4150 8950 4200
Wire Wire Line
	8450 3800 8950 3800
Wire Wire Line
	8950 3800 8950 3850
Wire Wire Line
	8450 3800 8450 4350
$Comp
L Device:R_US R19
U 1 1 5EDCB86E
P 8950 5050
F 0 "R19" H 9018 5096 50  0000 L CNN
F 1 "10k" H 9018 5005 50  0000 L CNN
F 2 "Resistor_SMD:R_0603_1608Metric" V 8990 5040 50  0001 C CNN
F 3 "~" H 8950 5050 50  0001 C CNN
F 4 "311-10.0KHRCT-ND" H 8950 5050 50  0001 C CNN "DK_PN"
F 5 "Yageo" H 8950 5050 50  0001 C CNN "Manufacturer"
F 6 "RC0603FR-0710KL" H 8950 5050 50  0001 C CNN "Mfr PN"
F 7 "0603" H 8950 5050 50  0001 C CNN "Package"
F 8 "C328335" H 8950 5050 50  0001 C CNN "LCSC_PN"
	1    8950 5050
	1    0    0    -1  
$EndComp
$Comp
L Device:R_US R20
U 1 1 5EDCB878
P 8950 5450
F 0 "R20" H 9018 5496 50  0000 L CNN
F 1 "10k" H 9018 5405 50  0000 L CNN
F 2 "Resistor_SMD:R_0603_1608Metric" V 8990 5440 50  0001 C CNN
F 3 "~" H 8950 5450 50  0001 C CNN
F 4 "311-10.0KHRCT-ND" H 8950 5450 50  0001 C CNN "DK_PN"
F 5 "Yageo" H 8950 5450 50  0001 C CNN "Manufacturer"
F 6 "RC0603FR-0710KL" H 8950 5450 50  0001 C CNN "Mfr PN"
F 7 "0603" H 8950 5450 50  0001 C CNN "Package"
F 8 "C328335" H 8950 5450 50  0001 C CNN "LCSC_PN"
	1    8950 5450
	1    0    0    -1  
$EndComp
Wire Wire Line
	8950 5200 8950 5250
Wire Wire Line
	8950 4850 8950 4900
Wire Wire Line
	8950 4850 8450 4850
Connection ~ 8450 4850
Wire Wire Line
	8450 4850 8450 4900
Wire Wire Line
	8950 4200 9000 4200
Connection ~ 8950 4200
Wire Wire Line
	8950 4200 8950 4250
Wire Wire Line
	8950 5250 9000 5250
Connection ~ 8950 5250
Wire Wire Line
	8950 5250 8950 5300
Wire Wire Line
	8150 5100 8050 5100
Text GLabel 9000 4200 2    50   Output ~ 0
B4_V1
Text GLabel 9000 5250 2    50   Output ~ 0
B4_V2
Text GLabel 8050 5100 0    50   Input ~ 0
B4_SW
Wire Wire Line
	8100 4900 8100 5350
Wire Wire Line
	8100 5350 8450 5350
Wire Wire Line
	8100 4800 8100 4350
Wire Wire Line
	8100 4350 8450 4350
Text GLabel 4900 4050 2    50   Input ~ 0
B2_V1
Text GLabel 4900 3950 2    50   Input ~ 0
B2_V2
Text GLabel 4900 4150 2    50   Input ~ 0
B3_V1
Text GLabel 4900 4250 2    50   Input ~ 0
B3_V2
Text GLabel 4900 4350 2    50   Input ~ 0
B4_V1
Text GLabel 4900 4450 2    50   Input ~ 0
B4_V2
Wire Wire Line
	4800 3950 4900 3950
Wire Wire Line
	4900 4050 4800 4050
Wire Wire Line
	4800 4150 4900 4150
Wire Wire Line
	4900 4250 4800 4250
Wire Wire Line
	4800 4350 4900 4350
Wire Wire Line
	4900 4450 4800 4450
$Comp
L power:GND #PWR0101
U 1 1 5EE09D11
P 6650 3200
F 0 "#PWR0101" H 6650 2950 50  0001 C CNN
F 1 "GND" H 6655 3027 50  0000 C CNN
F 2 "" H 6650 3200 50  0001 C CNN
F 3 "" H 6650 3200 50  0001 C CNN
	1    6650 3200
	1    0    0    -1  
$EndComp
Wire Wire Line
	6650 3150 6650 3200
Connection ~ 6650 3150
$Comp
L power:GND #PWR0102
U 1 1 5EE0DF8B
P 6650 5400
F 0 "#PWR0102" H 6650 5150 50  0001 C CNN
F 1 "GND" H 6655 5227 50  0000 C CNN
F 2 "" H 6650 5400 50  0001 C CNN
F 3 "" H 6650 5400 50  0001 C CNN
	1    6650 5400
	1    0    0    -1  
$EndComp
Wire Wire Line
	6650 5350 6650 5400
Connection ~ 6650 5350
$Comp
L power:GND #PWR0103
U 1 1 5EE12490
P 8450 5400
F 0 "#PWR0103" H 8450 5150 50  0001 C CNN
F 1 "GND" H 8455 5227 50  0000 C CNN
F 2 "" H 8450 5400 50  0001 C CNN
F 3 "" H 8450 5400 50  0001 C CNN
	1    8450 5400
	1    0    0    -1  
$EndComp
Wire Wire Line
	8450 5350 8450 5400
Connection ~ 8450 5350
$Comp
L power:GND #PWR0104
U 1 1 5EE16AA9
P 8450 3200
F 0 "#PWR0104" H 8450 2950 50  0001 C CNN
F 1 "GND" H 8455 3027 50  0000 C CNN
F 2 "" H 8450 3200 50  0001 C CNN
F 3 "" H 8450 3200 50  0001 C CNN
	1    8450 3200
	1    0    0    -1  
$EndComp
Wire Wire Line
	8450 3150 8450 3200
Connection ~ 8450 3150
$Comp
L Switch:SW_Push SW1
U 1 1 5EDE1E11
P 2400 5300
F 0 "SW1" H 2400 5585 50  0000 C CNN
F 1 "SW_Push" H 2400 5494 50  0000 C CNN
F 2 "switches:SW_6x6_MULTI" H 2400 5500 50  0001 C CNN
F 3 "~" H 2400 5500 50  0001 C CNN
F 4 "450-1649-ND" H 2400 5300 50  0001 C CNN "DK_PN"
F 5 "TE" H 2400 5300 50  0001 C CNN "Manufacturer"
F 6 "1825910-2" H 2400 5300 50  0001 C CNN "Mfr PN"
F 7 "C266204" H 2400 5300 50  0001 C CNN "LCSC_PN"
	1    2400 5300
	1    0    0    -1  
$EndComp
Text GLabel 3700 3750 0    50   Input ~ 0
BTN
Wire Wire Line
	3700 3750 3800 3750
Text GLabel 2650 5300 2    50   Output ~ 0
BTN
Wire Wire Line
	2600 5300 2650 5300
$Comp
L power:GND #PWR014
U 1 1 5EDEB8CC
P 2200 5350
F 0 "#PWR014" H 2200 5100 50  0001 C CNN
F 1 "GND" H 2205 5177 50  0000 C CNN
F 2 "" H 2200 5350 50  0001 C CNN
F 3 "" H 2200 5350 50  0001 C CNN
	1    2200 5350
	1    0    0    -1  
$EndComp
NoConn ~ 3800 3150
NoConn ~ 3800 3250
NoConn ~ 3800 4350
NoConn ~ 4800 3550
NoConn ~ 4800 3250
NoConn ~ 4800 3150
NoConn ~ 4200 2750
NoConn ~ 4400 2750
$Comp
L power:GND #PWR0105
U 1 1 5EE348EF
P 8950 5650
F 0 "#PWR0105" H 8950 5400 50  0001 C CNN
F 1 "GND" H 8955 5477 50  0000 C CNN
F 2 "" H 8950 5650 50  0001 C CNN
F 3 "" H 8950 5650 50  0001 C CNN
	1    8950 5650
	1    0    0    -1  
$EndComp
Wire Wire Line
	2200 5300 2200 5350
Wire Wire Line
	8950 5600 8950 5650
$Comp
L Device:Q_NMOS_GSD Q1
U 1 1 5EDEAA26
P 6550 2900
F 0 "Q1" H 6756 2946 50  0000 L CNN
F 1 "AO3416" H 6756 2855 50  0000 L CNN
F 2 "Package_TO_SOT_SMD:SOT-23" H 6750 3000 50  0001 C CNN
F 3 "https://datasheet.lcsc.com/szlcsc/Alpha-Omega-Semicon-AOS-AO3416_C43307.pdf" H 6550 2900 50  0001 C CNN
F 4 "785-1011-1-ND" H 6550 2900 50  0001 C CNN "DK_PN"
F 5 "C43307" H 6550 2900 50  0001 C CNN "LCSC_PN"
F 6 "Alpha & Omega" H 6550 2900 50  0001 C CNN "Manufacturer"
F 7 "AO3416" H 6550 2900 50  0001 C CNN "Mfr PN"
F 8 "SOT-23" H 6550 2900 50  0001 C CNN "Package"
	1    6550 2900
	1    0    0    -1  
$EndComp
$Comp
L Device:Q_NMOS_GSD Q3
U 1 1 5EE0A23F
P 8350 2900
F 0 "Q3" H 8556 2946 50  0000 L CNN
F 1 "AO3416" H 8556 2855 50  0000 L CNN
F 2 "Package_TO_SOT_SMD:SOT-23" H 8550 3000 50  0001 C CNN
F 3 "https://datasheet.lcsc.com/szlcsc/Alpha-Omega-Semicon-AOS-AO3416_C43307.pdf" H 8350 2900 50  0001 C CNN
F 4 "785-1011-1-ND" H 8350 2900 50  0001 C CNN "DK_PN"
F 5 "C43307" H 8350 2900 50  0001 C CNN "LCSC_PN"
F 6 "Alpha & Omega" H 8350 2900 50  0001 C CNN "Manufacturer"
F 7 "AO3416" H 8350 2900 50  0001 C CNN "Mfr PN"
F 8 "SOT-23" H 8350 2900 50  0001 C CNN "Package"
	1    8350 2900
	1    0    0    -1  
$EndComp
$Comp
L Device:Q_NMOS_GSD Q2
U 1 1 5EE0C5EB
P 6550 5100
F 0 "Q2" H 6756 5146 50  0000 L CNN
F 1 "AO3416" H 6756 5055 50  0000 L CNN
F 2 "Package_TO_SOT_SMD:SOT-23" H 6750 5200 50  0001 C CNN
F 3 "https://datasheet.lcsc.com/szlcsc/Alpha-Omega-Semicon-AOS-AO3416_C43307.pdf" H 6550 5100 50  0001 C CNN
F 4 "785-1011-1-ND" H 6550 5100 50  0001 C CNN "DK_PN"
F 5 "C43307" H 6550 5100 50  0001 C CNN "LCSC_PN"
F 6 "Alpha & Omega" H 6550 5100 50  0001 C CNN "Manufacturer"
F 7 "AO3416" H 6550 5100 50  0001 C CNN "Mfr PN"
F 8 "SOT-23" H 6550 5100 50  0001 C CNN "Package"
	1    6550 5100
	1    0    0    -1  
$EndComp
$Comp
L Device:Q_NMOS_GSD Q4
U 1 1 5EE0E7BD
P 8350 5100
F 0 "Q4" H 8556 5146 50  0000 L CNN
F 1 "AO3416" H 8556 5055 50  0000 L CNN
F 2 "Package_TO_SOT_SMD:SOT-23" H 8550 5200 50  0001 C CNN
F 3 "https://datasheet.lcsc.com/szlcsc/Alpha-Omega-Semicon-AOS-AO3416_C43307.pdf" H 8350 5100 50  0001 C CNN
F 4 "785-1011-1-ND" H 8350 5100 50  0001 C CNN "DK_PN"
F 5 "C43307" H 8350 5100 50  0001 C CNN "LCSC_PN"
F 6 "Alpha & Omega" H 8350 5100 50  0001 C CNN "Manufacturer"
F 7 "AO3416" H 8350 5100 50  0001 C CNN "Mfr PN"
F 8 "SOT-23" H 8350 5100 50  0001 C CNN "Package"
	1    8350 5100
	1    0    0    -1  
$EndComp
$Comp
L Device:R_US R11
U 1 1 5EE38DAA
P 8450 2350
F 0 "R11" H 8518 2396 50  0000 L CNN
F 1 "4.7Ω 5W" H 8518 2305 50  0000 L CNN
F 2 "Resistor_THT:R_Axial_DIN0922_L20.0mm_D9.0mm_P25.40mm_Horizontal" V 8490 2340 50  0001 C CNN
F 3 "https://www.vishay.com/docs/28730/acac-at.pdf" H 8450 2350 50  0001 C CNN
F 4 "" H 8450 2350 50  0001 C CNN "DK PN"
F 5 "Vishay Dale" H 8450 2350 50  0001 C CNN "Manufacturer"
F 6 "AC05000004708JAC00" H 8450 2350 50  0001 C CNN "Mfr PN"
F 7 "PPC5W4.7CT-ND" H 8450 2350 50  0001 C CNN "DK_PN"
	1    8450 2350
	1    0    0    -1  
$EndComp
$Comp
L Device:R_US R2
U 1 1 5EE39457
P 6650 4550
F 0 "R2" H 6718 4596 50  0000 L CNN
F 1 "4.7Ω 5W" H 6718 4505 50  0000 L CNN
F 2 "Resistor_THT:R_Axial_DIN0922_L20.0mm_D9.0mm_P25.40mm_Horizontal" V 6690 4540 50  0001 C CNN
F 3 "https://www.vishay.com/docs/28730/acac-at.pdf" H 6650 4550 50  0001 C CNN
F 4 "" H 6650 4550 50  0001 C CNN "DK PN"
F 5 "Vishay Dale" H 6650 4550 50  0001 C CNN "Manufacturer"
F 6 "AC05000004708JAC00" H 6650 4550 50  0001 C CNN "Mfr PN"
F 7 "PPC5W4.7CT-ND" H 6650 4550 50  0001 C CNN "DK_PN"
	1    6650 4550
	1    0    0    -1  
$EndComp
$Comp
L Device:R_US R12
U 1 1 5EE39B7C
P 8450 4550
F 0 "R12" H 8518 4596 50  0000 L CNN
F 1 "4.7Ω 5W" H 8518 4505 50  0000 L CNN
F 2 "Resistor_THT:R_Axial_DIN0922_L20.0mm_D9.0mm_P25.40mm_Horizontal" V 8490 4540 50  0001 C CNN
F 3 "https://www.vishay.com/docs/28730/acac-at.pdf" H 8450 4550 50  0001 C CNN
F 4 "" H 8450 4550 50  0001 C CNN "DK PN"
F 5 "Vishay Dale" H 8450 4550 50  0001 C CNN "Manufacturer"
F 6 "AC05000004708JAC00" H 8450 4550 50  0001 C CNN "Mfr PN"
F 7 "PPC5W4.7CT-ND" H 8450 4550 50  0001 C CNN "DK_PN"
	1    8450 4550
	1    0    0    -1  
$EndComp
$EndSCHEMATC
